<svg width="40" height="40" viewBox="0 0 40 40" fill="none" xmlns="http://www.w3.org/2000/svg">
<circle cx="20" cy="20" r="20" fill="#E4F4EC"/>
<path fill-rule="evenodd" clip-rule="evenodd" d="M29.8751 19.9792V28.8333C29.8751 29.4086 29.4087 29.875 28.8334 29.875H22.5834C22.0081 29.875 21.5417 29.4086 21.5417 28.8333V19.9792C21.5417 19.4039 22.0081 18.9375 22.5834 18.9375H28.8334C29.4087 18.9375 29.8751 19.4039 29.8751 19.9792Z" stroke="#1FAB61" stroke-width="2" stroke-linecap="round" stroke-linejoin="round"/>
<path d="M29.8751 22.5833H21.5417" stroke="#1FAB61" stroke-width="2" stroke-linecap="round" stroke-linejoin="round"/>
<path d="M14.7708 15.2917H23.6249" stroke="#1FAB61" stroke-width="2" stroke-linecap="round" stroke-linejoin="round"/>
<path d="M14.7708 18.9375H17.3749" stroke="#1FAB61" stroke-width="2" stroke-linecap="round" stroke-linejoin="round"/>
<path d="M14.7708 22.5833H17.3749" stroke="#1FAB61" stroke-width="2" stroke-linecap="round" stroke-linejoin="round"/>
<path d="M18.4167 26.75H13.2083C12.0577 26.75 11.125 25.8173 11.125 24.6667V13.2083C11.125 12.0577 12.0577 11.125 13.2083 11.125H25.7083C26.8589 11.125 27.7917 12.0577 27.7917 13.2083V16.3333" stroke="#1FAB61" stroke-width="2" stroke-linecap="round" stroke-linejoin="round"/>
<path d="M24.4063 24.875C24.3776 24.875 24.3542 24.8983 24.3542 24.9271C24.3542 24.9558 24.3776 24.9792 24.4063 24.9792C24.4351 24.9792 24.4584 24.9558 24.4584 24.9271C24.4584 24.8983 24.4351 24.875 24.4063 24.875" stroke="#1FAB61" stroke-width="2" stroke-linecap="round" stroke-linejoin="round"/>
<path d="M27.0103 24.875C26.9816 24.875 26.9583 24.8983 26.9583 24.9271C26.9583 24.9558 26.9816 24.9792 27.0103 24.9792C27.0391 24.9792 27.0624 24.9558 27.0624 24.9271C27.0624 24.8983 27.0391 24.875 27.0103 24.875" stroke="#1FAB61" stroke-width="2" stroke-linecap="round" stroke-linejoin="round"/>
<path d="M24.4063 27.4791C24.3776 27.4791 24.3542 27.5024 24.3542 27.5312C24.3542 27.56 24.3776 27.5833 24.4063 27.5833C24.4351 27.5833 24.4584 27.56 24.4584 27.5312C24.4584 27.5024 24.4351 27.4791 24.4063 27.4791" stroke="#1FAB61" stroke-width="2" stroke-linecap="round" stroke-linejoin="round"/>
<path d="M27.0103 27.4791C26.9816 27.4791 26.9583 27.5024 26.9583 27.5312C26.9583 27.56 26.9816 27.5833 27.0103 27.5833C27.0391 27.5833 27.0624 27.56 27.0624 27.5312C27.0624 27.5024 27.0391 27.4791 27.0103 27.4791" stroke="#1FAB61" stroke-width="2" stroke-linecap="round" stroke-linejoin="round"/>
</svg>
