<svg width="20" height="20" viewBox="0 0 20 20" fill="none" xmlns="http://www.w3.org/2000/svg">
<path d="M10 14.1667V2.5" stroke="#1FAB61" stroke-width="1.5" stroke-linecap="round" stroke-linejoin="round"/>
<path d="M17.5 14.1666C17.5 16.0075 16.0075 17.5 14.1667 17.5H5.83333C3.9925 17.5 2.5 16.0075 2.5 14.1666" stroke="#1FAB61" stroke-width="1.5" stroke-linecap="round" stroke-linejoin="round"/>
<path d="M14.1667 10L9.99919 14.1675L5.83252 10" stroke="#1FAB61" stroke-width="1.5" stroke-linecap="round" stroke-linejoin="round"/>
</svg>
