<svg width="40" height="40" viewBox="0 0 40 40" fill="none" xmlns="http://www.w3.org/2000/svg">
<path d="M9.99988 16.6667V8.33334C9.99988 6.49239 11.4923 5 13.3332 5H31.6665C33.5075 5 34.9999 6.49239 34.9999 8.33334V31.6667C34.9999 33.5076 33.5075 35 31.6665 35H24.9999" stroke="#1FAB61" stroke-width="3" stroke-linecap="round" stroke-linejoin="round"/>
<path d="M16.6666 11.6667H28.3333" stroke="#1FAB61" stroke-width="3" stroke-linecap="round" stroke-linejoin="round"/>
<path d="M20 18.3333H28.3333" stroke="#1FAB61" stroke-width="3" stroke-linecap="round" stroke-linejoin="round"/>
<path d="M28.3336 25.0001H24.9999" stroke="#1FAB61" stroke-width="3" stroke-linecap="round" stroke-linejoin="round"/>
<path fill-rule="evenodd" clip-rule="evenodd" d="M8.235 34.9583H5.93167C5.68457 34.9583 5.4476 34.8602 5.27288 34.6855C5.09816 34.5107 5 34.2738 5 34.0267V34.0267V26.7233C5 26.4762 5.09816 26.2393 5.27288 26.0645C5.4476 25.8898 5.68457 25.7917 5.93167 25.7917H8.235C8.48652 25.7956 8.72617 25.8993 8.90121 26.08C9.07625 26.2607 9.17234 26.5035 9.16833 26.755V34.0883C9.14153 34.582 8.72934 34.9662 8.235 34.9583V34.9583Z" stroke="#1FAB61" stroke-width="3" stroke-linecap="round" stroke-linejoin="round"/>
<path d="M9.16675 27.7667L12.2467 22.7383C12.7729 21.8825 13.8027 21.4792 14.7701 21.7501C15.7375 22.021 16.4081 22.9004 16.4134 23.905V26.5717H18.9301C19.6864 26.572 20.3923 26.9512 20.8101 27.5817C21.1819 28.1406 21.2898 28.8346 21.1051 29.48L19.8851 33.75C19.6786 34.4698 19.0206 34.966 18.2717 34.9667H12.3034C11.8167 34.9667 11.3452 34.7968 10.9701 34.4867L9.16675 32.9867" stroke="#1FAB61" stroke-width="3" stroke-linecap="round" stroke-linejoin="round"/>
</svg>
