<svg width="40" height="40" viewBox="0 0 40 40" fill="none" xmlns="http://www.w3.org/2000/svg">
<circle cx="20" cy="20" r="20" fill="#E4F4EC"/>
<path d="M26.7507 17.2923V15.0298C26.7507 14.4777 26.5309 13.9475 26.1403 13.5569L23.1944 10.611C22.8038 10.2204 22.2736 10.0006 21.7215 10.0006H14.2507C13.0997 10.0006 12.1674 10.9329 12.1674 12.0839V26.6673C12.1674 27.8183 13.0997 28.7506 14.2507 28.7506H18.4174" stroke="#1FAB61" stroke-width="2" stroke-linecap="round" stroke-linejoin="round"/>
<path d="M26.7501 15.2083H22.5834C22.0084 15.2083 21.5417 14.7417 21.5417 14.1667V10" stroke="#1FAB61" stroke-width="2" stroke-linecap="round" stroke-linejoin="round"/>
<path d="M25.1875 29.7919C22.599 29.7919 20.5 27.6929 20.5 25.1044C20.5 22.5158 22.599 20.4169 25.1875 20.4169C27.7771 20.4169 29.875 22.5158 29.875 25.1044C29.875 27.6929 27.7771 29.7919 25.1875 29.7919" stroke="#1FAB61" stroke-width="2" stroke-linecap="round" stroke-linejoin="round"/>
<path d="M25.1878 23.2344V26.9735" stroke="#1FAB61" stroke-width="2" stroke-linecap="round" stroke-linejoin="round"/>
<path d="M27.058 25.1044H23.3188" stroke="#1FAB61" stroke-width="2" stroke-linecap="round" stroke-linejoin="round"/>
</svg>
